{
  "photos": {
    "page": 1,
    "pages": 45,
    "perpage": 10,
    "total": "449",
    "photo": [
      {
        "id": "20647360902",
        "owner": "50403002@N00",
        "secret": "6b72b0dd78",
        "server": "5641",
        "farm": 6,
        "title": "Al voltant del Drac mentre balla i balla escopint foc",
        "ispublic": 1,
        "isfriend": 0,
        "isfamily": 0
      },
      {
        "id": "20630168546",
        "owner": "50403002@N00",
        "secret": "4847f8cef8",
        "server": "627",
        "farm": 1,
        "title": "Pluja dels dracs de la Bisbal. 30 Anys correfocs!! Els de veritat! sentir la calor del foc, l'olor de p\u00f3lvora i la bogeria dels diables a prop teu...",
        "ispublic": 1,
        "isfriend": 0,
        "isfamily": 0
      },
      {
        "id": "20646928482",
        "owner": "50403002@N00",
        "secret": "8af717abfc",
        "server": "671",
        "farm": 1,
        "title": "C O R R E F O C 2015 *RED*",
        "ispublic": 1,
        "isfriend": 0,
        "isfamily": 0
      },
      {
        "id": "20654860051",
        "owner": "50403002@N00",
        "secret": "a8780047ea",
        "server": "5793",
        "farm": 6,
        "title": "Holi Festival R.E.D.",
        "ispublic": 1,
        "isfriend": 0,
        "isfamily": 0
      },
      {
        "id": "20027141183",
        "owner": "50403002@N00",
        "secret": "2c8a05590d",
        "server": "5628",
        "farm": 6,
        "title": "Holi Festival a la Festa Major de la Bisbal",
        "ispublic": 1,
        "isfriend": 0,
        "isfamily": 0
      },
      {
        "id": "20647885425",
        "owner": "50403002@N00",
        "secret": "0e8d7c9344",
        "server": "5626",
        "farm": 6,
        "title": "Holi Festival a la Bisbal, jovent, m\u00fasica i colors",
        "ispublic": 1,
        "isfriend": 0,
        "isfamily": 0
      },
      {
        "id": "19129331265",
        "owner": "39739891@N05",
        "secret": "2a2e56784d",
        "server": "261",
        "farm": 1,
        "title": "plac\u0327a bisbal",
        "ispublic": 1,
        "isfriend": 0,
        "isfamily": 0
      },
      {
        "id": "34630329212",
        "owner": "88483348@N00",
        "secret": "21a6ee56a6",
        "server": "4171",
        "farm": 5,
        "title": "Santa Maria de Fonteta (7)",
        "ispublic": 1,
        "isfriend": 0,
        "isfamily": 0
      },
      {
        "id": "33949558961",
        "owner": "17643163@N00",
        "secret": "dbb0293ed6",
        "server": "2912",
        "farm": 3,
        "title": "IMG_9785",
        "ispublic": 1,
        "isfriend": 0,
        "isfamily": 0
      },
      {
        "id": "31970833706",
        "owner": "67411163@N00",
        "secret": "8ba45f040b",
        "server": "264",
        "farm": 1,
        "title": "Stollen",
        "ispublic": 1,
        "isfriend": 0,
        "isfamily": 0
      }
    ]
  },
  "stat": "ok"
}